{
  "development": {
    "username": "root",
    "password": "dinhtri2605",
    "database": "meetingroom-booking",
    "host": "127.0.0.1",
    "dialect": "mysql",
    "port": 3308,
    "timezone": "+07:00"
  },
  "test": {
    "username": "root",
    "password": null,
    "database": "database_test",
    "host": "127.0.0.1",
    "dialect": "mysql"
  },
  "production": {
    "username": "root",
    "password": null,
    "database": "database_production",
    "host": "127.0.0.1",
    "dialect": "mysql"
  }
}
